…
``` r
#To calculate the average departure delay across my grouped data, I will use summarize() with  
#nested round() and mean() functions, and the specified .groups argument to ensure that the  
#grouping is passed through.  
#Nothing needs to be specified for arrange() to sort in ascending order as that is the default.  
dep_delay.dt %>%
  group_by(name_airline, name_airport) %>% 
  summarize(avg_dep_delay = round(mean(dep_delay, na.rm=TRUE),2), .groups = "keep") %>%
  arrange(avg_dep_delay) 
```

    ## # A tibble: 35 × 3
    ## # Groups:   name_airline, name_airport [35]
    ##    name_airline           name_airport        avg_dep_delay
    ##    <chr>                  <chr>                       <dbl>
    ##  1 US Airways Inc.        La Guardia                   3.31
    ##  2 US Airways Inc.        Newark Liberty Intl          3.74
    ##  3 Hawaiian Airlines Inc. John F Kennedy Intl          4.9 
    ##  4 Alaska Airlines Inc.   Newark Liberty Intl          5.8 
    ##  5 US Airways Inc.        John F Kennedy Intl          5.87
    ##  6 Endeavor Air Inc.      Newark Liberty Intl          5.95
    ##  7 American Airlines Inc. La Guardia                   6.71
    ##  8 United Air Lines Inc.  John F Kennedy Intl          7.9 
    ##  9 Delta Air Lines Inc.   John F Kennedy Intl          8.33
    ## 10 Envoy Air              La Guardia                   8.53
    ## # … with 25 more rows
…
